Portfolio 3 - Fueling My Titanic Obsession
…
as_tibble(titanic)

## # A tibble: 1,309 × 14
##    pclass survived name     sex      age sibsp parch ticket  fare cabin embarked
##     <dbl>    <dbl> <chr>    <chr>  <dbl> <dbl> <dbl> <chr>  <dbl> <chr> <chr>   
##  1      1        1 Allen, … fema… 29         0     0 24160  211.  B5    S       
##  2      1        1 Allison… male   0.917     1     2 113781 152.  C22 … S       
##  3      1        0 Allison… fema…  2         1     2 113781 152.  C22 … S       
##  4      1        0 Allison… male  30         1     2 113781 152.  C22 … S       
##  5      1        0 Allison… fema… 25         1     2 113781 152.  C22 … S       
##  6      1        1 Anderso… male  48         0     0 19952   26.6 E12   S       
##  7      1        1 Andrews… fema… 63         1     0 13502   78.0 D7    S       
##  8      1        0 Andrews… male  39         0     0 112050   0   A36   S       
##  9      1        1 Appleto… fema… 53         2     0 11769   51.5 C101  S       
## 10      1        0 Artagav… male  71         0     0 PC 17…  49.5 <NA>  C       
## # ℹ 1,299 more rows
## # ℹ 3 more variables: boat <chr>, body <dbl>, home.dest <chr>
…
as_tibble(selected_titanic)

## # A tibble: 270 × 9
##       age pclass sex    survived embarked  fare cabin   parch sibsp
##     <dbl>  <dbl> <chr>     <dbl> <chr>    <dbl> <chr>   <dbl> <dbl>
##  1 29          1 female        1 S        211.  B5          0     0
##  2  0.917      1 male          1 S        152.  C22 C26     2     1
##  3  2          1 female        0 S        152.  C22 C26     2     1
##  4 30          1 male          0 S        152.  C22 C26     2     1
##  5 25          1 female        0 S        152.  C22 C26     2     1
##  6 48          1 male          1 S         26.6 E12         0     0
##  7 63          1 female        1 S         78.0 D7          0     1
##  8 39          1 male          0 S          0   A36         0     0
##  9 53          1 female        1 S         51.5 C101        0     2
## 10 47          1 male          0 C        228.  C62 C64     0     1
## # ℹ 260 more rows
…
