Portfolio 7 - Coffee Tidy Tues
…
coffee_survey %>% 
  count(gender, cups) %>% 
  arrange(cups, gender)

## # A tibble: 34 × 3
##    gender                 cups      n
##    <chr>                  <chr> <int>
##  1 Female                 1       366
##  2 Male                   1       751
##  3 Non-binary             1        38
##  4 Other (please specify) 1         1
##  5 Prefer not to say      1        11
##  6 <NA>                   1       110
##  7 Female                 2       279
##  8 Male                   2      1138
##  9 Non-binary             2        38
## 10 Other (please specify) 2         6
## # ℹ 24 more rows
…
